6 102 1346 1066 1824
6 100 1348 618 1053
6 100 558 98 601
6 576 1350 102 608
5 834 983 332 584
5 987 1088 281 482
5 1060 1109 249 409
5 1102 1158 202 364
5 1128 1184 166 285
1 761 1132 618 1047
1 1124 1303 659 878
1 153 738 1239 1819
5 352 494 669 1051
5 238 352 686 985
5 125 224 861 985
5 104 196 1337 1555
5 209 349 1271 1467
