6 83 1054 72 1027
6 88 398 1050 1516
6 416 725 1050 1514
6 744 1054 1050 1514
1 673 1050 515 1022
2 437 721 1208 1511
2 503 750 661 888
2 174 291 1184 1438
5 890 1056 1219 1360
5 750 816 1148 1511
5 805 869 1249 1376
5 295 378 1256 1376
5 215 400 750 945
7 817 936 520 711
7 638 696 659 734
7 312 350 757 821
7 192 243 1187 1255
7 551 702 1210 1390
7 984 1034 1223 1280
