6 74 442 1009 1509
6 453 1072 1011 1509
6 71 1073 680 999
6 67 1073 380 670
6 71 1072 71 368
1 887 1013 1116 1381
1 599 769 800 995
5 378 439 791 922
5 512 572 776 942
4 673 887 704 855
5 721 764 563 631
5 624 675 565 634
5 462 497 519 595
5 348 391 480 545
