6 124 1364 1344 1835
6 124 1366 817 1328
6 2 1484 11 788
1 1362 1488 328 708
1 260 633 468 788
1 173 346 544 751
1 95 211 451 784
1 664 811 306 446
1 920 1086 291 446
1 1144 1326 282 453
1 482 657 248 446
1 788 935 251 451
1 671 797 208 320
1 346 488 295 448
1 13 180 304 637
1 177 304 248 435
1 1044 1157 220 384
1 915 1140 1386 1702
1 1215 1366 1397 1766
5 577 644 966 1244
5 442 537 1022 1248
5 335 426 1020 1242
5 233 315 964 1246
5 164 224 995 1242
5 128 164 968 1302
5 237 288 1526 1637
5 300 337 1526 1566
5 337 362 1495 1566
5 360 391 1522 1564
5 391 420 1524 1562
