6 80 753 77 513
6 773 1446 82 524
6 80 751 542 980
6 766 1437 542 980
6 88 751 1002 1433
6 775 1437 1000 1437
6 86 753 1455 1897
6 775 1433 1464 1897
3 95 493 1011 1437
3 91 484 546 971
3 777 1144 544 971
3 215 424 1520 1888
3 422 613 1520 1886
3 877 1104 1531 1893
3 1126 1320 1524 1886
5 388 437 280 442
3 1115 1431 560 975
7 284 413 557 755
7 1028 1140 580 800
7 1120 1253 620 835
7 280 413 1011 1213
7 304 384 1540 1633
7 473 535 1533 1620
7 975 1046 1548 1642
7 1177 1248 1535 1617
