6 13 1291 4 442
6 33 1262 473 708
6 31 1264 742 1100
6 33 1264 1126 1453
6 8 1293 1484 1997
1 680 1126 86 446
1 328 726 782 1088
1 188 671 1211 1437
1 8 388 1644 1993
1 422 1091 1486 1995
5 17 273 168 440
5 166 453 191 442
5 328 531 173 440
5 566 668 240 440
5 1006 1097 1248 1344
5 1066 1164 1168 1280
5 1137 1206 1231 1342
7 764 962 93 286
7 331 388 171 246
7 404 477 806 886
7 513 591 1331 1420
7 711 948 1502 1784
7 182 286 1644 1788
