6 81 682 1040 1493
6 691 1132 1036 1496
6 78 526 565 1029
6 531 1128 565 1027
6 78 1132 97 556
1 309 583 1073 1280
1 252 337 1141 1223
1 83 224 1095 1274
1 83 284 1288 1495
1 282 419 1342 1493
1 321 412 291 556
5 417 478 366 526
5 682 785 293 520
5 417 483 695 839
5 387 437 686 832
5 348 405 741 835
