6 90 519 1114 1486
6 471 1123 1144 1482
6 97 1118 826 1143
6 99 316 83 440
6 92 320 455 880
6 327 947 80 878
6 944 1114 76 880
1 551 673 410 583
1 679 945 504 872
1 814 944 380 696
1 332 593 508 876
1 960 1114 163 508
1 960 1111 552 880
1 142 376 1212 1482
1 296 451 1157 1379
1 467 842 1182 1486
1 609 812 1162 1388
1 780 1125 1276 1482
1 99 657 888 1143
1 632 986 904 1141
1 839 1112 890 1143
