6 66 696 1588 2109
6 708 1418 1590 2114
6 63 1416 901 1534
6 59 830 490 969
6 66 814 2 434
3 637 1382 25 915
3 80 379 136 436
3 238 417 493 682
3 396 644 509 684
3 535 967 906 1446
3 221 379 1597 1925
3 811 998 1826 2109
3 1028 1248 1843 2114
5 977 1045 1597 1755
5 403 464 1680 1772
5 453 531 755 984
5 410 464 733 882
5 328 410 828 974
5 394 467 922 981
5 379 443 143 304
5 486 545 115 271
3 368 653 1744 2109
