6 3 680 471 1596
6 691 1000 531 988
6 689 993 1011 1534
6 37 533 58 490
6 547 814 62 492
6 821 1002 58 490
1 547 700 133 490
1 686 808 140 488
1 695 999 531 990
1 696 912 1230 1525
1 848 993 1203 1530
1 33 376 471 1512
1 144 581 1082 1598
1 371 673 823 1089
