6 85 1091 1143 1475
6 87 1093 807 1130
6 83 1091 467 791
6 83 1093 126 451
2 656 828 645 789
2 844 1059 483 789
2 328 512 472 757
2 129 257 608 784
2 405 529 240 398
2 702 887 259 412
2 200 346 184 366
2 229 416 958 1130
2 88 240 846 1127
2 684 840 823 1111
2 928 1040 906 1088
2 101 309 1255 1463
2 620 876 1203 1418
