6 231 1036 448 1004
6 309 988 160 449
6 48 972 1052 1557
1 250 576 467 1002
1 565 849 620 1002
1 771 947 816 1004
1 695 890 467 819
1 343 519 163 446
1 80 312 1185 1457
1 471 576 1116 1450
1 848 976 1205 1557
1 794 926 1322 1553
5 698 743 215 392
5 748 798 215 389
5 600 634 264 373
5 579 609 264 380
5 552 579 275 369
5 520 545 286 362
5 631 654 280 366
5 648 673 286 364
