6 32 1006 60 467
6 110 378 433 796
6 398 938 433 792
6 112 933 816 1011
6 33 1000 968 1523
1 80 325 71 417
1 373 682 1029 1320
5 584 734 138 423
5 776 917 202 419
5 190 336 1127 1287
7 195 277 90 202
7 638 679 152 202
7 494 616 1041 1200
7 188 264 1139 1226
