6 636 1092 6 1831
6 85 618 1031 1698
6 91 620 734 1017
6 89 618 174 707
5 227 435 423 679
5 415 482 250 620
5 431 608 1397 1686
3 642 1086 14 1182
3 227 451 746 1019
3 280 457 1053 1308
7 246 364 766 884
7 644 1092 229 870
7 347 465 1110 1281
7 553 622 1397 1489
