6 111 1133 14 508
6 91 1188 518 1261
6 111 1196 1204 1826
3 142 638 533 887
3 510 876 899 1202
3 840 1116 695 1145
5 909 990 1460 1808
5 1005 1098 1507 1820
5 1076 1186 1491 1826
5 758 948 240 463
3 317 402 1273 1456
3 400 471 1289 1432
7 449 624 557 766
7 864 1017 750 935
7 771 874 301 406
7 319 388 1289 1446
7 408 474 1316 1393
7 667 756 1387 1592
7 927 986 1481 1554
7 1019 1082 1517 1592
7 1088 1149 1509 1588
