6 144 891 1322 1891
6 917 1377 1326 1888
6 144 724 708 1293
6 755 1375 708 1293
6 140 724 97 677
6 755 1377 91 677
5 862 1062 253 595
5 1080 1195 448 613
5 1184 1297 348 493
5 762 840 397 557
1 920 1373 1344 1884
1 542 817 1422 1722
1 137 575 766 1297
1 562 724 911 1275
1 922 1324 997 1195
1 1111 1348 755 1104
5 840 1111 791 1097
5 822 1006 915 1133
5 364 506 1488 1755
5 142 411 1597 1871
5 246 388 1446 1655
5 146 271 1526 1668
5 508 733 1646 1806
