2 186 417 728 1135
2 591 795 717 1126
5 851 964 1464 1613
6 91 1424 1153 1866
6 102 488 640 1142
6 500 888 642 1140
6 900 1417 646 1135
6 95 606 115 615
6 620 1020 120 611
6 1031 1408 117 613
7 604 795 717 857
7 220 357 724 853
