6 124 888 1708 2039
6 122 885 1196 1669
6 126 879 541 1150
6 129 883 9 505
6 908 1411 9 2023
3 530 874 1205 1667
3 174 527 1286 1674
3 208 654 1728 2027
3 140 466 727 1146
3 167 514 197 496
3 564 792 36 498
3 1044 1255 1280 1594
3 947 1132 1094 1459
5 1291 1409 1058 1293
5 956 1162 926 1198
5 536 734 589 835
5 589 783 854 1107
7 249 398 222 389
7 559 702 131 335
7 212 394 790 1035
7 199 439 1379 1637
7 577 856 1234 1549
7 1044 1091 1125 1198
7 1021 1085 942 1010
7 1304 1372 1082 1153
7 391 561 1814 1968
