6 122 539 1242 1940
6 547 1317 1244 1938
6 120 1310 844 1176
6 117 1310 148 778
3 120 299 150 459
3 591 1150 146 773
3 341 551 846 1181
3 521 667 855 1086
3 778 1112 844 1176
3 547 749 1287 1598
3 311 537 1674 1940
5 994 1143 1376 1846
5 787 931 1362 1683
5 181 240 1299 1450
