6 108 507 1230 1753
6 522 1331 1228 1755
6 110 509 691 1216
6 524 919 686 1209
6 938 1331 686 1209
6 106 738 149 669
6 757 1064 147 674
6 1079 1333 147 676
1 1075 1333 373 672
1 755 887 418 674
1 866 1062 369 672
1 435 640 302 629
1 198 531 273 650
1 290 401 876 1198
1 729 904 795 1211
1 936 1201 938 1213
1 1015 1326 789 1207
1 113 311 1493 1704
5 1066 1126 1484 1623
5 313 452 1361 1638
5 145 268 878 1004
5 659 744 902 987
