6 74 1121 1212 1502
6 76 1120 768 1191
6 7 455 5 771
6 469 1116 80 273
6 471 1114 279 538
6 469 1118 545 755
1 709 904 547 753
1 835 1068 83 272
1 220 437 279 766
1 103 257 449 762
1 76 512 771 1191
1 695 853 1242 1441
1 74 600 1313 1498
5 965 1057 304 529
5 512 705 104 270
5 666 801 1064 1187
