6 64 1248 966 1888
6 57 568 113 940
6 597 1073 111 935
1 700 900 293 924
1 71 673 1108 1895
1 537 815 1393 1891
1 357 715 980 1442
1 548 1042 1088 1408
1 751 935 1351 1568
1 826 1031 1504 1760
1 822 1231 1337 1611
1 877 1057 1326 1448
1 791 1191 1651 1855
