6 8 1201 430 1544
1 725 972 730 1287
1 910 1107 776 1304
1 1061 1196 805 1260
5 636 796 894 1216
5 423 540 1338 1534
5 574 624 1425 1532
5 769 819 1425 1534
5 522 615 1064 1217
5 353 430 1111 1253
5 245 305 1107 1237
5 165 215 1143 1228
7 951 1002 796 862
7 1107 1155 878 931
