6 53 631 1273 1911
6 664 1237 1275 1908
6 60 1235 688 1246
6 60 1244 73 664
3 777 1233 1348 1904
3 364 628 1388 1908
3 911 1128 273 546
3 946 1057 915 1242
3 595 828 851 1244
3 166 335 244 644
3 795 964 1415 1837
5 522 595 331 571
5 146 226 944 1122
