6 55 1237 1257 1908
6 17 1271 677 1233
6 57 1233 77 666
3 211 435 188 657
3 60 188 273 655
3 1028 1226 204 657
3 875 1026 308 651
3 866 1235 1477 1904
3 853 1020 1460 1591
3 511 695 1513 1757
5 266 375 1606 1791
5 180 257 1624 1771
5 260 348 922 1215
5 584 666 364 520
5 657 768 353 591
5 111 184 1006 1108
