6 44 984 1104 1500
6 48 986 584 1086
6 53 986 67 574
1 497 712 110 538
1 746 904 179 565
1 51 222 584 785
1 67 218 785 1082
1 320 410 851 1079
1 248 344 764 1075
1 622 791 832 1080
1 819 986 757 1080
2 691 904 1205 1496
1 544 661 1221 1496
1 241 343 1185 1496
1 65 181 1304 1496
5 184 229 1320 1443
5 458 517 1301 1400
5 458 522 785 944
5 512 600 759 1072
5 96 172 122 289
5 234 314 348 501
