6 70 370 675 997
6 376 600 673 999
6 612 934 672 997
6 72 939 1012 1270
6 73 645 75 663
6 655 936 72 367
6 655 936 373 663
1 306 454 333 607
1 390 544 301 615
1 765 937 76 292
1 655 816 208 366
1 658 886 375 661
1 96 273 747 997
1 217 366 675 994
1 376 571 678 999
1 652 858 763 994
1 783 933 676 996
1 75 543 1017 1269
1 630 915 1015 1267
