6 93 1511 1455 1957
6 73 673 573 1300
6 4 540 37 488
6 675 1506 426 1440
1 995 1342 942 1360
1 97 422 971 1297
1 188 586 631 851
1 933 1222 1688 1953
1 1015 1173 1468 1655
4 4 528 311 484
4 31 495 68 266
4 562 828 168 393
