6 46 385 81 753
6 403 766 76 757
6 780 988 81 759
6 48 986 773 1059
6 48 990 1077 1486
5 55 156 350 652
5 138 241 375 634
5 280 375 320 538
5 410 549 408 750
5 414 501 307 416
5 504 602 396 524
5 90 280 1244 1459
1 46 227 784 1043
1 631 823 874 1052
1 807 977 805 1050
1 421 622 904 1054
1 584 759 302 529
1 784 979 270 752
1 753 983 1118 1448
7 787 949 302 526
7 583 720 323 524
7 460 536 432 561
7 524 608 398 503
7 423 503 320 412
7 151 188 391 437
7 304 348 323 373
7 81 126 362 410
7 113 145 428 472
7 90 238 810 961
7 494 613 935 1047
7 647 768 883 1031
7 864 977 805 942
7 126 167 1258 1313
7 876 968 1127 1239
