6 175 1186 1346 1966
6 104 1128 888 1322
6 42 1253 104 884
1 853 1122 1566 1962
1 542 720 524 871
1 691 866 520 884
1 53 357 684 884
1 280 524 620 882
5 486 537 393 504
5 511 555 328 413
5 402 448 480 546
5 951 1080 522 828
5 817 900 500 782
5 884 966 517 797
