6 101 448 80 421
6 464 814 80 421
6 828 1182 80 419
6 828 1175 435 775
6 462 817 433 778
6 97 451 437 776
6 97 455 792 1125
6 464 821 789 1128
6 832 1184 792 1125
6 99 451 1146 1484
6 467 823 1143 1477
6 830 1184 1141 1479
1 492 709 837 1136
1 844 1116 99 419
5 912 992 481 645
5 968 1025 503 625
5 1079 1146 494 643
5 535 664 526 663
5 129 307 545 695
5 149 316 860 1050
5 231 336 1287 1408
7 888 1075 147 398
7 179 256 551 641
7 579 631 531 583
7 529 688 881 1064
7 172 229 864 919
7 266 300 1288 1331
