6 101 650 1086 1493
6 666 887 1084 1491
6 899 1093 1082 1495
6 103 1093 707 1072
6 104 1093 87 691
1 864 1086 808 1066
1 922 1093 1155 1493
1 670 858 1212 1491
1 280 407 1152 1342
1 449 613 1224 1400
1 336 501 725 995
1 106 302 803 1064
1 656 856 782 1000
1 424 640 817 1031
1 151 392 1328 1491
7 396 433 727 778
7 168 213 812 896
7 689 801 821 977
7 926 1066 807 1036
7 504 558 821 887
7 339 394 1162 1233
7 526 576 1233 1304
7 736 840 1221 1361
7 933 1084 1196 1438
